…
## Quick start

``` r
library(tissot)

## Compute distortion properties at a grid of points
xy <- expand.grid(lon = seq(-150, 150, by = 30),
                  lat = seq(-60, 60, by = 30))

r <- tissot(xy, proj.out = "+proj=robin")
r
#> Tissot indicatrix: 55 points, +proj=robin
#> # A tibble: 55 × 14
#>        x     y dx_dlam dy_dlam dx_dphi dy_dphi scale.h scale.k scale.omega
#>    <dbl> <dbl>   <dbl>   <dbl>   <dbl>   <dbl>   <dbl>   <dbl>       <dbl>
#>  1  -150   -60    1.35       0  -0.895   0.946   1.30     1.35        47.0
#>  2  -120   -60    1.35       0  -0.716   0.946   1.19     1.35        40.0
#>  3   -90   -60    1.35       0  -0.537   0.946   1.09     1.35        33.2
#>  4   -60   -60    1.35       0  -0.358   0.946   1.01     1.35        26.9
#>  5   -30   -60    1.35       0  -0.179   0.946   0.963    1.35        22.2
#>  6     0   -60    1.35       0   0       0.946   0.946    1.35        20.4
#>  7    30   -60    1.35       0   0.179   0.946   0.963    1.35        22.2
#>  8    60   -60    1.35       0   0.358   0.946   1.01     1.35        26.9
#>  9    90   -60    1.35       0   0.537   0.946   1.09     1.35        33.2
#> 10   120   -60    1.35       0   0.716   0.946   1.19     1.35        40.0
#> # ℹ 45 more rows
#> # ℹ 5 more variables: scale.a <dbl>, scale.b <dbl>, scale.area <dbl>,
#> #   angle_deformation <dbl>, convergence <dbl>
```
…
